%YAML 1.1
%TAG !u! tag:unity3d.com,2011:
--- !u!74 &7400000
AnimationClip:
  m_ObjectHideFlags: 0
  m_CorrespondingSourceObject: {fileID: 0}
  m_PrefabInstance: {fileID: 0}
  m_PrefabAsset: {fileID: 0}
  m_Name: Silver Ataque Uno
  serializedVersion: 6
  m_Legacy: 0
  m_Compressed: 0
  m_UseHighQualityCurve: 1
  m_RotationCurves: []
  m_CompressedRotationCurves: []
  m_EulerCurves: []
  m_PositionCurves: []
  m_ScaleCurves: []
  m_FloatCurves: []
  m_PPtrCurves:
  - curve:
    - time: 0
      value: {fileID: 21300000, guid: abaf1506865a440ae9fef3b4c6515bce, type: 3}
    - time: 0.16666667
      value: {fileID: 21300000, guid: adb775a7dc732415cbb159994b0b7253, type: 3}
    - time: 0.33333334
      value: {fileID: 21300000, guid: 9ce40f50528c84e528df20772dbdefbb, type: 3}
    - time: 0.5
      value: {fileID: 21300000, guid: 34652e3d9e66e498ba4da7d1a7ccaa1e, type: 3}
    - time: 0.6666667
      value: {fileID: 21300000, guid: c8f391e0927c1458ea22a6b69fd8f0af, type: 3}
    - time: 0.8333333
      value: {fileID: 21300000, guid: 139c238c2d2a144da97a9ad7c4157cd8, type: 3}
    - time: 1
      value: {fileID: 21300000, guid: a28751c51ce6d4d8fbc398af832deffa, type: 3}
    - time: 1.1666666
      value: {fileID: 21300000, guid: 4a67813ef774d43f7b4c25de10fb533d, type: 3}
    attribute: m_Sprite
    path: 
    classID: 212
    script: {fileID: 0}
  m_SampleRate: 60
  m_WrapMode: 0
  m_Bounds:
    m_Center: {x: 0, y: 0, z: 0}
    m_Extent: {x: 0, y: 0, z: 0}
  m_ClipBindingConstant:
    genericBindings:
    - serializedVersion: 2
      path: 0
      attribute: 0
      script: {fileID: 0}
      typeID: 212
      customType: 23
      isPPtrCurve: 1
    pptrCurveMapping:
    - {fileID: 21300000, guid: abaf1506865a440ae9fef3b4c6515bce, type: 3}
    - {fileID: 21300000, guid: adb775a7dc732415cbb159994b0b7253, type: 3}
    - {fileID: 21300000, guid: 9ce40f50528c84e528df20772dbdefbb, type: 3}
    - {fileID: 21300000, guid: 34652e3d9e66e498ba4da7d1a7ccaa1e, type: 3}
    - {fileID: 21300000, guid: c8f391e0927c1458ea22a6b69fd8f0af, type: 3}
    - {fileID: 21300000, guid: 139c238c2d2a144da97a9ad7c4157cd8, type: 3}
    - {fileID: 21300000, guid: a28751c51ce6d4d8fbc398af832deffa, type: 3}
    - {fileID: 21300000, guid: 4a67813ef774d43f7b4c25de10fb533d, type: 3}
  m_AnimationClipSettings:
    serializedVersion: 2
    m_AdditiveReferencePoseClip: {fileID: 0}
    m_AdditiveReferencePoseTime: 0
    m_StartTime: 0
    m_StopTime: 1.1833333
    m_OrientationOffsetY: 0
    m_Level: 0
    m_CycleOffset: 0
    m_HasAdditiveReferencePose: 0
    m_LoopTime: 1
    m_LoopBlend: 0
    m_LoopBlendOrientation: 0
    m_LoopBlendPositionY: 0
    m_LoopBlendPositionXZ: 0
    m_KeepOriginalOrientation: 0
    m_KeepOriginalPositionY: 1
    m_KeepOriginalPositionXZ: 0
    m_HeightFromFeet: 0
    m_Mirror: 0
  m_EditorCurves: []
  m_EulerEditorCurves: []
  m_HasGenericRootTransform: 0
  m_HasMotionFloatCurves: 0
  m_Events: []
