%YAML 1.1
%TAG !u! tag:unity3d.com,2011:
--- !u!74 &7400000
AnimationClip:
  m_ObjectHideFlags: 0
  m_CorrespondingSourceObject: {fileID: 0}
  m_PrefabInstance: {fileID: 0}
  m_PrefabAsset: {fileID: 0}
  m_Name: Silver Corriendo
  serializedVersion: 6
  m_Legacy: 0
  m_Compressed: 0
  m_UseHighQualityCurve: 1
  m_RotationCurves: []
  m_CompressedRotationCurves: []
  m_EulerCurves: []
  m_PositionCurves: []
  m_ScaleCurves: []
  m_FloatCurves: []
  m_PPtrCurves:
  - curve:
    - time: 0.083333336
      value: {fileID: 21300000, guid: bef511b6d1215444e993c42d5dbf11bf, type: 3}
    - time: 0.16666667
      value: {fileID: 21300000, guid: d8668f74b4d4b411e8e5811e07c8c5bf, type: 3}
    - time: 0.25
      value: {fileID: 21300000, guid: f52493f3212d2488c847e73e83eb5a05, type: 3}
    - time: 0.33333334
      value: {fileID: 21300000, guid: 490b8fbf2fba842429ad95efc5e542e0, type: 3}
    - time: 0.41666666
      value: {fileID: 21300000, guid: c3257a14e4ddf4435a780d30c5232ac6, type: 3}
    - time: 0.5
      value: {fileID: 21300000, guid: 75e0d567013aa4230a407d0ac13e54e7, type: 3}
    - time: 0.5833333
      value: {fileID: 21300000, guid: 0ff9c57c89e00426c94600a20026c204, type: 3}
    - time: 0.6666667
      value: {fileID: 21300000, guid: 684adf90d5115484da4fbc97a89192d3, type: 3}
    attribute: m_Sprite
    path: 
    classID: 212
    script: {fileID: 0}
  m_SampleRate: 60
  m_WrapMode: 0
  m_Bounds:
    m_Center: {x: 0, y: 0, z: 0}
    m_Extent: {x: 0, y: 0, z: 0}
  m_ClipBindingConstant:
    genericBindings:
    - serializedVersion: 2
      path: 0
      attribute: 0
      script: {fileID: 0}
      typeID: 212
      customType: 23
      isPPtrCurve: 1
    pptrCurveMapping:
    - {fileID: 21300000, guid: bef511b6d1215444e993c42d5dbf11bf, type: 3}
    - {fileID: 21300000, guid: d8668f74b4d4b411e8e5811e07c8c5bf, type: 3}
    - {fileID: 21300000, guid: f52493f3212d2488c847e73e83eb5a05, type: 3}
    - {fileID: 21300000, guid: 490b8fbf2fba842429ad95efc5e542e0, type: 3}
    - {fileID: 21300000, guid: c3257a14e4ddf4435a780d30c5232ac6, type: 3}
    - {fileID: 21300000, guid: 75e0d567013aa4230a407d0ac13e54e7, type: 3}
    - {fileID: 21300000, guid: 0ff9c57c89e00426c94600a20026c204, type: 3}
    - {fileID: 21300000, guid: 684adf90d5115484da4fbc97a89192d3, type: 3}
  m_AnimationClipSettings:
    serializedVersion: 2
    m_AdditiveReferencePoseClip: {fileID: 0}
    m_AdditiveReferencePoseTime: 0
    m_StartTime: 0
    m_StopTime: 0.68333334
    m_OrientationOffsetY: 0
    m_Level: 0
    m_CycleOffset: 0
    m_HasAdditiveReferencePose: 0
    m_LoopTime: 1
    m_LoopBlend: 0
    m_LoopBlendOrientation: 0
    m_LoopBlendPositionY: 0
    m_LoopBlendPositionXZ: 0
    m_KeepOriginalOrientation: 0
    m_KeepOriginalPositionY: 1
    m_KeepOriginalPositionXZ: 0
    m_HeightFromFeet: 0
    m_Mirror: 0
  m_EditorCurves: []
  m_EulerEditorCurves: []
  m_HasGenericRootTransform: 0
  m_HasMotionFloatCurves: 0
  m_Events: []
